{
    "API" :{
        "CTSGrukuApplicationServer" :{
            "BaseURL" : "http://group-fitness.ch/ManagementSysRest/",
            "Login"   : ""
        }
    },
    "FetchGET":{ 
        "method": "GET",
        "mode": "no-cors",
        "cache": "no-cache",         
        "credentials": "same-origin",
        "headers": {
            "Content-Type": "application/json; charset=utf-8"
        },
        "redirect": "follow", 
        "referrer": "no-referrer"
    }
}